Your Application, 0, 2023-05-15 13:50:19
Your Application, 0, 2023-05-15 13:52:24
Your Application, 0, 2023-05-15 13:53:35
, , 2023-05-15 14:09:41
Your Application, 0, 2023-05-15 14:11:09
Your Application, 0, 2023-05-15 14:13:15
Electron, 0, 2023-05-15 14:15:05
Electron, 0, 2023-05-15 14:15:24
